PL Injuries Data Prep
…
## # A tibble: 4 x 5
##   Foot  game_count injury_count injury_rate_pct avg_minutes_played
##   <chr>      <int>        <int>           <dbl>              <dbl>
## 1 Both        9879           96           0.972               66.4
## 2 Right      50911          361           0.709               73.9
## 3 Left       17865          120           0.672               73.2
## 4 ""          1409            6           0.426               67.8

Note: injury count is significantly lower when Foot is missing

TODO: create some groups based on country of birth / nationality ?

f_breakdown_by_variable(hamstring_only, "Nationality")

## # A tibble: 101 x 5
##    Nationality   game_count injury_count injury_rate_pct avg_minutes_play~
##    <chr>              <int>        <int>           <dbl>             <dbl>
##  1 FYR Macedonia         13            1            7.69              71.1
##  2 Barbados              91            5            5.49              84.1
##  3 Belarus               24            1            4.17              49.2
##  4 Montenegro            52            2            3.85              46.1
##  5 Zimbabwe              28            1            3.57              32.2
##  6 New Zealand          170            6            3.53              80.8
##  7 Congo                 99            3            3.03              82.7
##  8 Ecuador              359            7            1.95              65.6
##  9 Costa Rica           154            3            1.95              58.0
## 10 Venezuela            108            2            1.85              76.5
## # ... with 91 more rows
…
